<?xml version="1.0" encoding="utf-8"?>
<!-- Generator: Adobe Illustrator 24.1.2, SVG Export Plug-In . SVG Version: 6.00 Build 0)  -->
<svg version="1.1" id="Layer_1" xmlns="http://www.w3.org/2000/svg" xmlns:xlink="http://www.w3.org/1999/xlink" x="0px" y="0px"
	 viewBox="0 0 682 682" style="enable-background:new 0 0 682 682;" xml:space="preserve">
<style type="text/css">
	.st0{fill:#FFFFFF;}
</style>
<path class="st0" d="M572.5,46H108.9C60.4,46,21,85.4,21,133.9v283.7c0,48.4,39.3,87.7,87.6,87.9v128.7l185-128.7h278.9
	c48.5,0,87.9-39.4,87.9-87.9V133.9C660.4,85.4,620.9,46,572.5,46z M489.2,375.6H192.1v-37.5h297.1V375.6z M489.2,295.7H192.1v-37.5
	h297.1V295.7z M489.2,215.8H192.1v-37.5h297.1V215.8z"/>
</svg>
