<?xml version="1.0" encoding="utf-8"?>
<!-- Generator: Adobe Illustrator 24.1.2, SVG Export Plug-In . SVG Version: 6.00 Build 0)  -->
<svg version="1.1" id="Capa_1" xmlns="http://www.w3.org/2000/svg" xmlns:xlink="http://www.w3.org/1999/xlink" x="0px" y="0px"
	 viewBox="0 0 512 512" style="enable-background:new 0 0 512 512;" xml:space="preserve">
<style type="text/css">
	.st0{fill:#FFFFFF;}
</style>
<g>
	<g>
		<g>
			<path class="st0" d="M177.6,0H20.1C9,0,0,9,0,20.1v156.8C0,188,9,197,20.1,197s20.1-9,20.1-20.1V40.2h137.4
				c11.1,0,20.1-9,20.1-20.1S188.7,0,177.6,0z"/>
			<path class="st0" d="M176.9,471.1H40.2V334.4c0-11.1-9-20.1-20.1-20.1S0,323.3,0,334.4v156.8c0,11.1,9,20.1,20.1,20.1h156.8
				c11.1,0,20.1-9,20.1-20.1S188,471.1,176.9,471.1z"/>
			<path class="st0" d="M491.2,314.3c-11.1,0-20.1,9-20.1,20.1v137.4H334.4c-11.1,0-20.1,9-20.1,20.1s9,20.1,20.1,20.1h156.8
				c11.1,0,20.1-9,20.1-20.1V334.4C511.3,323.3,502.3,314.3,491.2,314.3z"/>
			<path class="st0" d="M491.9,0H334.4c-11.1,0-20.1,9-20.1,20.1s9,20.1,20.1,20.1h137.4v137.4c0,11.1,9,20.1,20.1,20.1
				s20.1-9,20.1-20.1V20.1C512,9,503,0,491.9,0z"/>
		</g>
	</g>
</g>
</svg>
