<?xml version="1.0" encoding="utf-8"?>
<!-- Generator: Adobe Illustrator 24.1.2, SVG Export Plug-In . SVG Version: 6.00 Build 0)  -->
<svg version="1.1" id="Capa_1" xmlns="http://www.w3.org/2000/svg" xmlns:xlink="http://www.w3.org/1999/xlink" x="0px" y="0px"
	 viewBox="0 0 31.4 31.4" style="enable-background:new 0 0 31.4 31.4;" xml:space="preserve">
<style type="text/css">
	.st0{fill:#FFFFFF;}
</style>
<g>
	<g id="c5_telephone">
		<path class="st0" d="M0,17.4V20l0,0c0,0.6,0.5,1,1,1l0,0l7.3-0.1c0.6,0,1-0.5,1-1v-2.6H8.9c0.1-1.1,1.4-1.3,4-1.6l6.2-0.1
			c1.5,0.1,3,0.4,3.1,1.6H22v2.6l0,0c0,0.6,0.5,1,1,1l0,0l7.3-0.1c0.6,0,1-0.5,1-1v-2.6H31c-0.3-1.6-2.8-6.6-15.1-6.7
			c-12.7,0-15.6,5.2-15.8,6.9L0,17.4z"/>
	</g>
	<g id="Capa_1_246_">
	</g>
</g>
</svg>
