<?xml version="1.0" encoding="utf-8"?>
<!-- Generator: Adobe Illustrator 24.1.2, SVG Export Plug-In . SVG Version: 6.00 Build 0)  -->
<svg version="1.1" id="Capa_1" xmlns="http://www.w3.org/2000/svg" xmlns:xlink="http://www.w3.org/1999/xlink" x="0px" y="0px"
	 viewBox="0 0 480 480" style="enable-background:new 0 0 480 480;" xml:space="preserve">
<style type="text/css">
	.st0{fill:#FFFFFF;}
</style>
<g>
	<g>
		<path class="st0" d="M407.6,40H72c-17.7,0-32,14.3-32,32v216c0,17.7,14.3,32,32,32h335.6c17.7,0,32-14.3,32-32V72
			C439.6,54.3,425.3,40,407.6,40z M423.6,288c0,8.8-7.2,16-16,16H72c-8.8,0-16-7.2-16-16V72c0-8.8,7.2-16,16-16h335.6
			c8.8,0,16,7.2,16,16V288z"/>
	</g>
</g>
<g>
	<g>
		<path class="st0" d="M416,0H64C28.7,0,0,28.7,0,64v256c0,35.3,28.7,64,64,64h117.4L170,424h-54c-15.5,0-28,12.5-28,28
			s12.5,28,28,28h248c15.5,0,28-12.5,28-28s-12.5-28-28-28h-54l-11.4-40H416c35.3,0,64-28.7,64-64V64C480,28.7,451.3,0,416,0z
			 M364,440c6.6,0,12,5.4,12,12s-5.4,12-12,12H116c-6.6,0-12-5.4-12-12s5.4-12,12-12H364z M186.6,424l11.4-40h84l11.4,40H186.6z
			 M464,320c0,26.5-21.5,48-48,48H64c-26.5,0-48-21.5-48-48V64c0-26.5,21.5-48,48-48h352c26.5,0,48,21.5,48,48V320z"/>
	</g>
</g>
<g>
	<g>
		<rect x="232" y="336" class="st0" width="16" height="16"/>
	</g>
</g>
<g>
	<g>
		<path class="st0" d="M96.1,80C87.2,80,80,87.2,80,96.1V144h16l0.1-48H216V80H96.1z"/>
	</g>
</g>
<g>
	<g>
		<rect x="232" y="80" class="st0" width="16" height="16"/>
	</g>
</g>
<g>
	<path class="st0" d="M285.5,167.2c-8.7,0-15.9-7.1-15.9-15.9c0-8.7,7.1-15.9,15.9-15.9c8.7,0,15.9,7.1,15.9,15.9
		C301.3,160.1,294.2,167.2,285.5,167.2z M285.5,141.9c-5.2,0-9.5,4.3-9.5,9.5c0,5.2,4.3,9.5,9.5,9.5s9.5-4.3,9.5-9.5
		C295,146.1,290.7,141.9,285.5,141.9z"/>
	<path class="st0" d="M285.5,237c-8.7,0-15.9-7.1-15.9-15.9c0-8.7,7.1-15.9,15.9-15.9c8.7,0,15.9,7.1,15.9,15.9
		C301.3,229.9,294.2,237,285.5,237z M285.5,211.6c-5.2,0-9.5,4.3-9.5,9.5c0,5.2,4.3,9.5,9.5,9.5s9.5-4.3,9.5-9.5
		C295,215.9,290.7,211.6,285.5,211.6z"/>
	<path class="st0" d="M224.2,202.1c-8.7,0-15.9-7.1-15.9-15.9c0-8.7,7.1-15.9,15.9-15.9s15.9,7.1,15.9,15.9
		C240.1,195,232.9,202.1,224.2,202.1z M224.2,176.7c-5.2,0-9.5,4.3-9.5,9.5c0,5.2,4.3,9.5,9.5,9.5s9.5-4.3,9.5-9.5
		C233.7,181,229.4,176.7,224.2,176.7z"/>
	<path class="st0" d="M235.2,183.2c-1.1,0-2.2-0.6-2.8-1.6c-0.9-1.5-0.3-3.5,1.2-4.3l39.2-22.4c1.5-0.9,3.5-0.3,4.3,1.2
		c0.9,1.5,0.3,3.5-1.2,4.3l-39.2,22.4C236.3,183,235.8,183.2,235.2,183.2z"/>
	<path class="st0" d="M274.5,218c-0.5,0-1.1-0.1-1.6-0.4l-39.2-22.4c-1.5-0.9-2-2.8-1.2-4.3c0.9-1.5,2.8-2.1,4.3-1.2l39.2,22.4
		c1.5,0.9,2.1,2.8,1.2,4.3C276.6,217.5,275.6,218,274.5,218z"/>
</g>
<g>
	<g>
		<path class="st0" d="M383.9,288c8.9,0.1,16.2-7.1,16.2-16l0.4-47.9l-16-0.1l-0.5,48l-119.9-1l-0.1,16L383.9,288z"/>
	</g>
</g>
<g>
	<g>
		
			<rect x="232.1" y="270.8" transform="matrix(8.637550e-03 -1 1 8.637550e-03 -40.7498 516.4075)" class="st0" width="16" height="16"/>
	</g>
</g>
</svg>
